{
    "type": "object",
    "properties": {
        "help": {
            "type": "string"
        },
        "success": {
            "type": "boolean"
        },
        "result": {
            "type": "array",
            "items": {
                "type": "object",
                "properties": {
                    "capacity": {
                        "type": "string",
                        "enum": ["member", "editor", "admin"]
                    },
                    "display_name": {
                        "type": "string"
                    },
                    "description": {
                        "type": "string"
                    },
                    "image_display_url": {
                        "type": "string"
                    },
                    "created": {
                        "type": "string",
                        "format": "date-time"
                    },
                    "name": {
                        "type": "string"
                    },
                    "is_organization": {
                        "type": "boolean"
                    },
                    "state": {
                        "type": "string"
                    },
                    "image_url": {
                        "type": "string"
                    },
                    "type": {
                        "type": "string"
                    },
                    "title": {
                        "type": "string"
                    },
                    "id": {
                        "type": "string"
                    },
                    "approval_status": {
                        "type": "string"
                    }
                },
                "required": [
                    "capacity",
                    "display_name",
                    "description",
                    "image_display_url",
                    "created",
                    "name",
                    "is_organization",
                    "state",
                    "image_url",
                    "type",
                    "title",
                    "id",
                    "approval_status"
                ]
            }
        }
    },
    "required": [
        "help",
        "success",
        "result"
    ]
}
