{
    "type": "object",
    "properties": {
        "help": {
            "type": "string"
        },
        "success": {
            "type": "boolean"
        },
        "result": {
            "type": "object",
            "properties": {
                "created": {
                    "type": "string",
                    "format": "date-time"
                },
                "description": {
                    "type": "string"
                },
                "format": {
                    "type": "string"
                },
                "id": {
                    "type": "string",
                    "format": "uuid"
                },
                "last_modified": {
                    "type": ["null", "string"],
                    "format": "date-time"
                },
                "mimetype": {
                    "type": ["null", "string"]
                },
                "name": {
                    "type": "string"
                },
                "package_id": {
                    "type": "string",
                    "format": "uuid"
                },
                "position": {
                    "type": "integer"
                },
                "state": {
                    "type": "string"
                },
                "url": {
                    "type": "string",
                    "format": "uri"
                }
            },
            "required": [
                "created",
                "description",
                "format",
                "id",
                "last_modified",
                "mimetype",
                "name",
                "package_id",
                "position",
                "state",
                "url"
            ]
        }
    },
    "required": [
        "help",
        "success",
        "result"
    ]
}
