{
    "help": "https://example.com/api/3/action/help_show?name=status_show",
    "success": true,
    "result": {
        "ckan_version": "2.8.12",
        "site_url": "https://example.com",
        "site_description": "",
        "site_title": "CKAN",
        "error_emails_to": null,
        "locale_default": "en",
        "extensions": false
    }
}
